<svg width="35" height="20" viewBox="0 0 35 20" fill="none" xmlns="http://www.w3.org/2000/svg">
<g clip-path="url(#clip0_66_1313)">
<path d="M9.92429 7.26363C9.92429 7.67519 9.96911 8.0089 10.0475 8.25362C10.1372 8.49833 10.2492 8.7653 10.406 9.05451C10.4621 9.14349 10.4845 9.23248 10.4845 9.31034C10.4845 9.42158 10.4172 9.53281 10.2716 9.64405L9.56578 10.1112C9.46495 10.178 9.36412 10.2113 9.27449 10.2113C9.16246 10.2113 9.05042 10.1557 8.93839 10.0556C8.78154 9.88877 8.6471 9.71079 8.53507 9.53281C8.42303 9.34372 8.311 9.13237 8.18776 8.87653C7.31389 9.89989 6.21596 10.4116 4.89396 10.4116C3.95287 10.4116 3.20224 10.1446 2.65327 9.61068C2.1043 9.07675 1.82422 8.36485 1.82422 7.47497C1.82422 6.52948 2.16032 5.76196 2.84373 5.18354C3.52714 4.60512 4.43462 4.31591 5.58857 4.31591C5.96948 4.31591 6.3616 4.34928 6.77613 4.40489C7.19066 4.46051 7.61639 4.5495 8.06452 4.64961V3.8376C8.06452 2.99221 7.88527 2.40267 7.53796 2.05784C7.17945 1.71301 6.57447 1.54616 5.71181 1.54616C5.31969 1.54616 4.91636 1.59066 4.50184 1.69077C4.08731 1.79088 3.68399 1.91324 3.29187 2.06897C3.11261 2.14683 2.97817 2.19132 2.89975 2.21357C2.82132 2.23582 2.76531 2.24694 2.72049 2.24694C2.56364 2.24694 2.48522 2.13571 2.48522 1.90211V1.35706C2.48522 1.17909 2.50763 1.04561 2.56364 0.967742C2.61966 0.889878 2.72049 0.812013 2.87734 0.734149C3.26946 0.533927 3.74 0.367075 4.28897 0.233593C4.83794 0.0889878 5.42052 0.0222469 6.0367 0.0222469C7.36991 0.0222469 8.34461 0.322581 8.972 0.923248C9.58819 1.52392 9.90188 2.43604 9.90188 3.65962V7.26363H9.92429ZM5.3757 8.95439C5.74542 8.95439 6.12633 8.88765 6.52966 8.75417C6.93298 8.62069 7.29149 8.37597 7.59398 8.04227C7.77323 7.83092 7.90768 7.59733 7.9749 7.33037C8.04212 7.0634 8.08693 6.74082 8.08693 6.36263V5.89544C7.76203 5.81757 7.41473 5.75083 7.05622 5.70634C6.69771 5.66185 6.3504 5.6396 6.00309 5.6396C5.25247 5.6396 4.7035 5.7842 4.33378 6.08454C3.96407 6.38487 3.78482 6.80756 3.78482 7.36374C3.78482 7.88654 3.91926 8.27586 4.19934 8.54283C4.46823 8.82091 4.86035 8.95439 5.3757 8.95439ZM14.372 10.1557C14.1704 10.1557 14.0359 10.1224 13.9463 10.0445C13.8567 9.97775 13.7783 9.82202 13.711 9.61068L11.0782 1.01224C11.011 0.789766 10.9774 0.645161 10.9774 0.567297C10.9774 0.389321 11.067 0.28921 11.2463 0.28921H12.3442C12.5571 0.28921 12.7027 0.322581 12.7812 0.400445C12.8708 0.467186 12.938 0.622914 13.0052 0.83426L14.8874 8.198L16.6351 0.83426C16.6912 0.611791 16.7584 0.467186 16.848 0.400445C16.9376 0.333704 17.0945 0.28921 17.2961 0.28921H18.1924C18.4053 0.28921 18.5509 0.322581 18.6406 0.400445C18.7302 0.467186 18.8086 0.622914 18.8534 0.83426L20.6236 8.28699L22.5617 0.83426C22.629 0.611791 22.7074 0.467186 22.7858 0.400445C22.8754 0.333704 23.0211 0.28921 23.2228 0.28921H24.2647C24.4439 0.28921 24.5448 0.378198 24.5448 0.567297C24.5448 0.622914 24.5336 0.678532 24.5223 0.745273C24.5111 0.812013 24.4887 0.901001 24.4439 1.02336L21.7439 9.6218C21.6767 9.84427 21.5983 9.98888 21.5086 10.0556C21.419 10.1224 21.2734 10.1669 21.0829 10.1669H20.1194C19.9065 10.1669 19.7609 10.1335 19.6713 10.0556C19.5816 9.97775 19.5032 9.83315 19.4584 9.61068L17.7219 2.43604L15.9965 9.59956C15.9405 9.82202 15.8733 9.96663 15.7837 10.0445C15.6941 10.1224 15.5372 10.1557 15.3355 10.1557H14.372ZM28.7684 10.4561C28.1859 10.4561 27.6033 10.3893 27.0431 10.2558C26.4829 10.1224 26.046 9.97775 25.7547 9.8109C25.5755 9.71079 25.4522 9.59956 25.4074 9.49944C25.3626 9.39933 25.3402 9.2881 25.3402 9.18799V8.62069C25.3402 8.3871 25.4298 8.27586 25.5979 8.27586C25.6651 8.27586 25.7323 8.28699 25.7995 8.30923C25.8668 8.33148 25.9676 8.37597 26.0796 8.42047C26.4605 8.58732 26.8751 8.7208 27.312 8.80979C27.7601 8.89878 28.1971 8.94327 28.6452 8.94327C29.351 8.94327 29.9 8.82091 30.2809 8.5762C30.6618 8.33148 30.8635 7.97553 30.8635 7.51947C30.8635 7.20801 30.7627 6.95217 30.561 6.74082C30.3593 6.52948 29.9784 6.34038 29.4294 6.1624L27.8049 5.66185C26.9871 5.40601 26.3821 5.02781 26.0124 4.52725C25.6427 4.03782 25.4522 3.49277 25.4522 2.91435C25.4522 2.44716 25.5531 2.0356 25.7547 1.67964C25.9564 1.32369 26.2253 1.01224 26.5614 0.767519C26.8975 0.51168 27.2784 0.322581 27.7265 0.189099C28.1747 0.0556173 28.6452 0 29.1382 0C29.3846 0 29.6423 0.0111235 29.8888 0.0444939C30.1465 0.0778643 30.3817 0.122358 30.617 0.166852C30.8411 0.222469 31.0539 0.278087 31.2556 0.344828C31.4573 0.411568 31.6141 0.478309 31.7261 0.54505C31.883 0.634038 31.995 0.723026 32.0622 0.823137C32.1295 0.912125 32.1631 1.03448 32.1631 1.19021V1.71301C32.1631 1.94661 32.0735 2.06897 31.9054 2.06897C31.8158 2.06897 31.6701 2.02447 31.4797 1.93548C30.8411 1.64627 30.1241 1.50167 29.3286 1.50167C28.69 1.50167 28.1859 1.60178 27.8386 1.81313C27.4913 2.02447 27.312 2.34705 27.312 2.80311C27.312 3.11457 27.424 3.38154 27.6481 3.59288C27.8722 3.80423 28.2867 4.01557 28.8805 4.20467L30.4714 4.70523C31.278 4.96107 31.8606 5.31702 32.2079 5.77308C32.5552 6.22914 32.7232 6.75195 32.7232 7.33037C32.7232 7.80868 32.6224 8.24249 32.432 8.62069C32.2303 8.99889 31.9614 9.33259 31.6141 9.59956C31.2668 9.87764 30.8523 10.0779 30.3705 10.2225C29.8664 10.3782 29.3398 10.4561 28.7684 10.4561Z" fill="white"/>
<path fill-rule="evenodd" clip-rule="evenodd" d="M30.8861 15.8625C27.2002 18.5655 21.845 20.0004 17.2404 20.0004C10.7872 20.0004 4.97261 17.6311 0.580872 13.6934C0.233566 13.3819 0.547262 12.9592 0.961788 13.2039C5.71204 15.9403 11.5714 17.5977 17.6325 17.5977C21.7217 17.5977 26.2143 16.7523 30.3484 15.0171C30.9646 14.739 31.4911 15.4175 30.8861 15.8625Z" fill="#FF9900"/>
<path fill-rule="evenodd" clip-rule="evenodd" d="M32.42 14.127C31.9495 13.5263 29.3055 13.8378 28.1067 13.9824C27.7482 14.0269 27.6922 13.7154 28.0171 13.4818C30.1233 12.0136 33.5852 12.4362 33.9885 12.9257C34.3918 13.4262 33.8765 16.8634 31.9047 18.5097C31.6022 18.7655 31.3109 18.632 31.4453 18.2983C31.8935 17.1971 32.8906 14.7166 32.42 14.127Z" fill="#FF9900"/>
</g>
<defs>
<clipPath id="clip0_66_1313">
<rect width="34.375" height="20" fill="white" transform="translate(0.125)"/>
</clipPath>
</defs>
</svg>
