<svg viewBox="0 0 37 38" fill="none" xmlns="http://www.w3.org/2000/svg">
<g clip-path="url(#clip0_43_430)">
<path d="M21.5633 9.671C21.5032 9.68842 10.4201 14.2057 10.4201 14.2057C9.59609 14.5357 8.89268 15.1214 8.40774 15.8811C7.92279 16.6408 7.68043 17.5368 7.71434 18.4445C7.74826 19.3523 8.05677 20.2266 8.59697 20.9459C9.13718 21.6652 9.88221 22.1938 10.7285 22.458L14.3452 23.3874L15.5369 27.3838C15.854 28.1825 16.3958 28.866 17.093 29.3469C17.7903 29.8278 18.6113 30.0842 19.4512 30.0833H19.5191C20.3717 30.0721 21.201 29.7958 21.8978 29.2911C22.5945 28.7863 23.1261 28.0766 23.4226 27.2555C23.4226 27.2555 27.5743 15.9109 27.585 15.8555C27.8037 14.9995 27.8002 14.0996 27.5749 13.2454C27.3497 12.3912 26.9105 11.6125 26.3011 10.9868C25.6917 10.3611 24.9334 9.91028 24.1016 9.67915C23.2699 9.44801 22.3936 9.44466 21.5602 9.66942L21.5633 9.671ZM24.6204 14.9894L20.5381 26.1408C20.4595 26.3671 20.3149 26.563 20.124 26.7018C19.9331 26.8406 19.7052 26.9157 19.4713 26.9167C19.3171 26.8977 18.6619 26.8755 18.4306 26.3182L17.0308 21.6062C16.9534 21.3448 16.8116 21.1084 16.619 20.9201C16.4263 20.7317 16.1895 20.5977 15.9316 20.5311L11.5872 19.4228C11.3585 19.3428 11.1594 19.1925 11.0169 18.9922C10.8745 18.7919 10.7956 18.5513 10.7911 18.3033C10.7865 18.0553 10.8565 17.8119 10.9915 17.6062C11.1265 17.4005 11.32 17.2425 11.5455 17.1538L22.4297 12.7205C22.7295 12.647 23.0427 12.655 23.3385 12.7439C23.6343 12.8328 23.9024 12.9993 24.1163 13.2272C24.3397 13.4523 24.5034 13.7325 24.5916 14.0409C24.6798 14.3494 24.6898 14.6759 24.6204 14.9894ZM18.5 0C14.8411 0 11.2643 1.11433 8.22196 3.20208C5.17965 5.28982 2.80846 8.25722 1.40824 11.729C0.00801579 15.2008 -0.358346 19.0211 0.355481 22.7067C1.06931 26.3924 2.83126 29.7778 5.41853 32.435C8.0058 35.0922 11.3022 36.9018 14.8908 37.6349C18.4795 38.368 22.1992 37.9918 25.5797 36.5537C28.9601 35.1156 31.8494 32.6804 33.8822 29.5558C35.915 26.4313 37 22.7578 37 19C36.9947 13.9626 35.0439 9.133 31.5756 5.57099C28.1074 2.00898 23.4049 0.00544838 18.5 0V0ZM18.5 34.8333C15.4509 34.8333 12.4702 33.9047 9.93497 32.1649C7.39971 30.4251 5.42372 27.9523 4.25687 25.0592C3.09001 22.166 2.78471 18.9824 3.37957 15.9111C3.97442 12.8397 5.44272 10.0185 7.59878 7.80414C9.75484 5.58981 12.5018 4.08183 15.4924 3.4709C18.4829 2.85997 21.5827 3.17352 24.3997 4.37191C27.2167 5.5703 29.6245 7.59969 31.3185 10.2035C33.0125 12.8073 33.9167 15.8685 33.9167 19C33.9122 23.1978 32.2865 27.2224 29.3963 30.1908C26.5061 33.1591 22.5874 34.8287 18.5 34.8333Z" fill="#F41435"/>
</g>
<defs>
<clipPath id="clip0_43_430">
<rect width="37" height="38" fill="white"/>
</clipPath>
</defs>
</svg>
