<svg width="38" height="38" viewBox="0 0 38 38" fill="none" xmlns="http://www.w3.org/2000/svg">
<path opacity="0.1" fill-rule="evenodd" clip-rule="evenodd" d="M0 19C0 8.50659 8.50659 0 19 0C29.4935 0 38 8.50659 38 19C38 29.4935 29.4935 38 19 38C8.50659 38 0 29.4935 0 19Z" fill="white"/>
<path fill-rule="evenodd" clip-rule="evenodd" d="M19.0014 8.86719C16.2494 8.86719 15.904 8.87923 14.8231 8.92841C13.7444 8.97781 13.008 9.1486 12.3637 9.3992C11.6972 9.65803 11.1318 10.0042 10.5685 10.5677C10.0049 11.131 9.65864 11.6963 9.39897 12.3625C9.14776 13.0071 8.97675 13.7437 8.9282 14.8221C8.87985 15.9029 8.86719 16.2485 8.86719 19.0007C8.86719 21.7527 8.87943 22.0971 8.9284 23.1779C8.97802 24.2568 9.1488 24.993 9.39919 25.6374C9.65823 26.3039 10.0045 26.8693 10.5679 27.4325C11.131 27.9962 11.6963 28.3432 12.3624 28.6021C13.0072 28.8526 13.7437 29.0234 14.8223 29.0728C15.9031 29.1221 16.2483 29.1341 19.0002 29.1341C21.7525 29.1341 22.0968 29.1221 23.1777 29.0728C24.2565 29.0234 24.9937 28.8526 25.6385 28.6021C26.3047 28.3432 26.8692 27.9962 27.4323 27.4325C27.9959 26.8693 28.3422 26.3039 28.6019 25.6376C28.8509 24.993 29.0219 24.2565 29.0726 23.1782C29.1212 22.0972 29.1339 21.7527 29.1339 19.0007C29.1339 16.2485 29.1212 15.9032 29.0726 14.8223C29.0219 13.7435 28.8509 13.0071 28.6019 12.3628C28.3422 11.6963 27.9959 11.131 27.4323 10.5677C26.8686 10.004 26.3049 9.65781 25.6378 9.3992C24.9918 9.1486 24.255 8.97781 23.1762 8.92841C22.0953 8.87923 21.7512 8.86719 18.9983 8.86719H19.0014ZM18.0924 10.6933C18.3622 10.6929 18.6632 10.6933 19.0014 10.6933C21.707 10.6933 22.0278 10.703 23.0962 10.7516C24.0842 10.7967 24.6204 10.9618 24.9776 11.1005C25.4505 11.2842 25.7876 11.5038 26.1421 11.8584C26.4968 12.2131 26.7164 12.5509 26.9004 13.0237C27.0391 13.3806 27.2044 13.9167 27.2494 14.9047C27.298 15.973 27.3085 16.2939 27.3085 18.9983C27.3085 21.7027 27.298 22.0236 27.2494 23.0917C27.2042 24.0798 27.0391 24.616 26.9004 24.9728C26.7167 25.4457 26.4968 25.7824 26.1421 26.1368C25.7874 26.4915 25.4507 26.7111 24.9776 26.8948C24.6208 27.0341 24.0842 27.1988 23.0962 27.2439C22.0279 27.2925 21.707 27.3031 19.0014 27.3031C16.2956 27.3031 15.9748 27.2925 14.9067 27.2439C13.9187 27.1983 13.3824 27.0333 13.025 26.8946C12.5521 26.7109 12.2144 26.4913 11.8597 26.1367C11.505 25.782 11.2854 25.4451 11.1013 24.9719C10.9626 24.6152 10.7973 24.0789 10.7524 23.0909C10.7038 22.0227 10.6941 21.7017 10.6941 18.9958C10.6941 16.2897 10.7038 15.9705 10.7524 14.9022C10.7976 13.9142 10.9626 13.378 11.1013 13.0208C11.285 12.5479 11.505 12.2102 11.8597 11.8555C12.2144 11.5008 12.5521 11.2812 13.025 11.0971C13.3822 10.9578 13.9187 10.7931 14.9067 10.7478C15.8415 10.7055 16.2038 10.6929 18.0924 10.6908V10.6933ZM24.4106 12.3758C23.7392 12.3758 23.1946 12.9199 23.1946 13.5915C23.1946 14.2628 23.7392 14.8075 24.4106 14.8075C25.0819 14.8075 25.6266 14.2628 25.6266 13.5915C25.6266 12.9201 25.0819 12.3758 24.4106 12.3758ZM19.0014 13.7967C16.1276 13.7967 13.7976 16.1267 13.7976 19.0007C13.7976 21.8745 16.1276 24.2035 19.0014 24.2035C21.8754 24.2035 24.2046 21.8745 24.2046 19.0007C24.2046 16.1267 21.8754 13.7967 19.0014 13.7967ZM19.0014 15.6228C20.8669 15.6228 22.3793 17.135 22.3793 19.0007C22.3793 20.866 20.8669 22.3784 19.0014 22.3784C17.1359 22.3784 15.6236 20.866 15.6236 19.0007C15.6236 17.135 17.1359 15.6228 19.0014 15.6228Z" fill="white"/>
</svg>
