<svg width="21" height="20" viewBox="0 0 21 20" fill="none" xmlns="http://www.w3.org/2000/svg">
<g clip-path="url(#clip0_66_1267)">
<path d="M0.625 0H20.625V20H0.625V0Z" fill="#F0DB4F"/>
<path d="M18.9873 15.2294C18.8409 14.3168 18.2459 13.5506 16.4835 12.8358C15.8714 12.5545 15.1888 12.353 14.9854 11.8891C14.9132 11.6191 14.9037 11.467 14.9493 11.3035C15.0805 10.7731 15.7136 10.6077 16.2155 10.7598C16.5387 10.8681 16.8447 11.1172 17.0291 11.5145C17.8923 10.9556 17.8904 10.9594 18.493 10.5754C18.2725 10.2332 18.1546 10.0754 18.0101 9.929C17.4911 9.34915 16.7839 9.05067 15.6527 9.07348C15.4569 9.0982 15.2592 9.12479 15.0634 9.14953C14.4987 9.29211 13.9607 9.58869 13.6451 9.98603C12.6983 11.0602 12.9683 12.9404 14.1204 13.7142C15.2554 14.5659 16.9227 14.7598 17.1356 15.5564C17.3428 16.5317 16.4189 16.8472 15.5006 16.7351C14.8238 16.5944 14.4474 16.2503 14.0406 15.6248C13.2915 16.0583 13.2915 16.0583 12.5216 16.5012C12.7041 16.9005 12.8961 17.0811 13.2022 17.4271C14.6508 18.8967 18.2763 18.8244 18.9265 16.6001C18.9531 16.524 19.128 16.0145 18.9873 15.2294ZM11.4968 9.19133H9.62611C9.62611 10.8073 9.61852 12.4119 9.61852 14.0278C9.61852 15.0564 9.67175 15.9993 9.50445 16.2883C9.23069 16.8567 8.52156 16.7864 8.19837 16.6761C7.86947 16.5145 7.70217 16.2845 7.50825 15.9594C7.45502 15.8662 7.4151 15.794 7.40177 15.7883C6.89419 16.0982 6.38846 16.4099 5.88086 16.7199C6.13373 17.2389 6.50633 17.6894 6.98352 17.9822C7.69645 18.4099 8.65462 18.5411 9.65654 18.3111C10.3086 18.121 10.8714 17.7275 11.166 17.1286C11.5919 16.3434 11.5006 15.3929 11.4968 14.3415C11.5063 12.6267 11.4968 10.9119 11.4968 9.19133Z" fill="#323330"/>
</g>
<defs>
<clipPath id="clip0_66_1267">
<rect width="20" height="20" fill="white" transform="translate(0.625)"/>
</clipPath>
</defs>
</svg>
