<svg width="35" height="36" viewBox="0 0 35 36" fill="none"
    xmlns="http://www.w3.org/2000/svg">
    <path id="stickclose" fill-rule="evenodd" clip-rule="evenodd" d="M17.5753 19.4875L33.4078 35.3201L34.8221 33.9059L18.9895 18.0733L34.6482 2.41457L33.234 1.00036L17.5753 16.6591L1.58804 0.671875L0.173828 2.08609L16.1611 18.0733L0 34.2344L1.41421 35.6486L17.5753 19.4875Z" fill="white"/>
</svg>
