<svg width="19" height="20" viewBox="0 0 19 20" fill="none" xmlns="http://www.w3.org/2000/svg">
<g clip-path="url(#clip0_66_1319)">
<path d="M8.24705 0.253463C8.73985 -0.0291614 9.38173 -0.030438 9.87412 0.253463C12.3512 1.65587 14.8292 3.05609 17.3059 4.45935C17.7717 4.72226 18.0833 5.24169 18.0786 5.77949V14.2169C18.082 14.777 17.7396 15.3089 17.2482 15.5658C14.7792 16.9605 12.3115 18.3569 9.8429 19.7515C9.3399 20.0397 8.68514 20.0175 8.19785 19.7057C7.45765 19.2758 6.71617 18.848 5.9759 18.4185C5.82463 18.3281 5.65411 18.2562 5.54729 18.1093C5.64172 17.9818 5.81054 17.9659 5.94773 17.9102C6.2567 17.8118 6.54048 17.6537 6.82433 17.5004C6.89611 17.4512 6.98374 17.4701 7.05254 17.5141C7.68551 17.8777 8.31288 18.2519 8.94796 18.612C9.08344 18.6904 9.22063 18.5864 9.33643 18.5217C11.7593 17.1497 14.1851 15.7829 16.6075 14.4105C16.6973 14.3672 16.7469 14.2718 16.7396 14.1732C16.7413 11.3899 16.74 8.60609 16.7404 5.82275C16.7507 5.71098 16.6861 5.60821 16.5853 5.56247C14.1248 4.17417 11.6657 2.78375 9.20569 1.39509C9.16307 1.36574 9.11258 1.34998 9.06086 1.34991C9.00914 1.34983 8.9586 1.36544 8.9159 1.39467C6.45589 2.78375 3.99717 4.17545 1.53717 5.56368C1.43665 5.60949 1.36919 5.71056 1.38115 5.82275C1.38158 8.60609 1.38115 11.3899 1.38115 14.1737C1.37689 14.2217 1.38743 14.27 1.41135 14.3118C1.43526 14.3537 1.47142 14.3873 1.51494 14.4079C2.1714 14.7809 2.82871 15.1513 3.4856 15.523C3.85567 15.7225 4.31004 15.8411 4.71776 15.6882C5.07756 15.5589 5.32977 15.1911 5.32291 14.8083C5.3263 12.0412 5.32121 9.27367 5.32545 6.50701C5.31646 6.38417 5.43276 6.28268 5.55197 6.29424C5.86739 6.29212 6.18323 6.28999 6.49865 6.29509C6.63031 6.29212 6.72091 6.42438 6.70463 6.54814C6.70336 9.33275 6.70803 12.1174 6.70251 14.902C6.70336 15.6442 6.39905 16.4517 5.71392 16.8148C4.86988 17.2529 3.82665 17.16 2.99279 16.7399C2.27093 16.3789 1.58204 15.9529 0.872987 15.5662C0.380251 15.3106 0.0395612 14.7767 0.0430297 14.217V5.77949C0.0378623 5.23056 0.361847 4.70169 0.842196 4.44261C3.31076 3.0468 5.7789 1.64992 8.24705 0.253463Z" fill="#8CC84B"/>
<path d="M10.4015 6.09781C11.4782 6.02838 12.6307 6.05668 13.5996 6.5881C14.3497 6.99533 14.7656 7.85001 14.7788 8.68498C14.7578 8.7976 14.6403 8.85973 14.533 8.852C14.2207 8.85157 13.9082 8.85625 13.5958 8.84987C13.4633 8.85498 13.3863 8.73257 13.3697 8.61519C13.2799 8.21569 13.0625 7.82001 12.6872 7.62732C12.111 7.33831 11.443 7.35285 10.8148 7.35888C10.3562 7.38328 9.86304 7.42306 9.4745 7.69328C9.17621 7.89796 9.08561 8.31115 9.19207 8.64391C9.29244 8.88285 9.56773 8.95994 9.79297 9.03101C11.0905 9.37101 12.4654 9.33718 13.7381 9.78462C14.265 9.96703 14.7805 10.3216 14.9609 10.8744C15.1968 11.6153 15.0934 12.5008 14.5673 13.0955C14.1407 13.585 13.5193 13.8514 12.8996 13.996C12.0752 14.1802 11.2196 14.1849 10.3823 14.1031C9.59505 14.0132 8.77578 13.806 8.16802 13.2685C7.64831 12.8164 7.39448 12.1119 7.41968 11.432C7.42569 11.3172 7.5398 11.2371 7.64959 11.2465C7.96416 11.244 8.27873 11.2431 8.5933 11.247C8.71894 11.238 8.81209 11.3468 8.81854 11.4654C8.87658 11.846 9.01935 12.2455 9.35063 12.4712C9.98996 12.8845 10.7922 12.8562 11.5242 12.8677C12.1307 12.8408 12.8115 12.8326 13.3065 12.431C13.5676 12.2019 13.645 11.8187 13.5744 11.4889C13.4979 11.2106 13.2073 11.0809 12.9577 10.996C11.6768 10.5901 10.2866 10.7374 9.01808 10.2783C8.50312 10.096 8.00514 9.75122 7.8073 9.22115C7.53123 8.47094 7.65773 7.54299 8.23895 6.96831C8.80565 6.39668 9.62372 6.17654 10.4015 6.09774V6.09781Z" fill="#8CC84B"/>
</g>
<defs>
<clipPath id="clip0_66_1319">
<rect width="18.125" height="20" fill="white"/>
</clipPath>
</defs>
</svg>
