<svg width="12" height="13" viewBox="0 0 12 13" fill="none" xmlns="http://www.w3.org/2000/svg">
<g clip-path="url(#clip0_62_698)">
<path d="M11.5601 0.940702C11.3809 0.759266 11.1578 0.627129 10.9126 0.55706C10.6673 0.486991 10.4082 0.481356 10.1601 0.540702L2.16012 2.2257C1.6994 2.28888 1.26548 2.47944 0.907217 2.77591C0.548951 3.07238 0.280572 3.46298 0.132303 3.90373C-0.0159661 4.34449 -0.0382359 4.81788 0.0680015 5.27061C0.174239 5.72334 0.404764 6.13741 0.733616 6.4662L1.59262 7.3247C1.63911 7.37118 1.67598 7.42637 1.70112 7.48711C1.72625 7.54786 1.73917 7.61296 1.73912 7.6787V9.2627C1.74022 9.48542 1.79149 9.70502 1.88912 9.9052L1.88512 9.9087L1.89812 9.9217C2.04462 10.2163 2.28391 10.4545 2.57912 10.5997L2.59212 10.6127L2.59562 10.6087C2.7958 10.7063 3.0154 10.7576 3.23812 10.7587H4.82212C4.95464 10.7586 5.08179 10.8111 5.17562 10.9047L6.03412 11.7632C6.26438 11.996 6.53844 12.181 6.84051 12.3074C7.14257 12.4338 7.46667 12.4991 7.79412 12.4997C8.06699 12.4994 8.33801 12.4548 8.59662 12.3677C9.03334 12.2243 9.4213 11.9617 9.71673 11.6096C10.0122 11.2574 10.2033 10.8297 10.2686 10.3747L11.9561 2.3572C12.0185 2.10702 12.0149 1.84491 11.9454 1.59658C11.876 1.34825 11.7432 1.12224 11.5601 0.940702ZM2.30062 6.6187L1.44112 5.7602C1.24098 5.56488 1.1007 5.31652 1.03676 5.04428C0.972816 4.77204 0.987856 4.4872 1.08012 4.2232C1.16956 3.95236 1.33492 3.71291 1.55651 3.53333C1.77811 3.35375 2.04662 3.2416 2.33012 3.2102L10.2506 1.5427L2.73812 9.0562V7.6787C2.73887 7.48187 2.7006 7.28684 2.6255 7.1049C2.55041 6.92295 2.43998 6.7577 2.30062 6.6187ZM9.28612 10.2037C9.24773 10.4799 9.13312 10.7399 8.95517 10.9545C8.77721 11.1692 8.54295 11.33 8.27868 11.4189C8.01441 11.5078 7.73059 11.5213 7.45908 11.4578C7.18757 11.3944 6.93912 11.2565 6.74162 11.0597L5.88162 10.1997C5.7428 10.0601 5.57769 9.94946 5.39583 9.8741C5.21397 9.79875 5.01897 9.76021 4.82212 9.7607H3.44462L10.9581 2.2497L9.28612 10.2037Z" fill="white"/>
</g>
<defs>
<clipPath id="clip0_62_698">
<rect width="12" height="12" fill="white" transform="translate(0 0.5)"/>
</clipPath>
</defs>
</svg>
